rv32i_pipeline.vcd
$date
	Wed Oct 29 16:43:07 2025
$end
$version
	Icarus Verilog
$end
$timescale
	1ps
$end
$scope module rv32i_pipeline_tb $end
$var wire 32 ! pc_out [31:0] $end
$var wire 32 " mem_rdata_out [31:0] $end
$var wire 32 # alu_out [31:0] $end
$var reg 1 $ clk $end
$var reg 1 % reset $end
$scope module dut $end
$var wire 32 & alu_out [31:0] $end
$var wire 1 $ clk $end
$var wire 32 ' instr [31:0] $end
$var wire 32 ( mem_rdata_out [31:0] $end
$var wire 32 ) pc_out [31:0] $end
$var wire 1 % reset $end
$var wire 1 * zero_flag $end
$var wire 32 + wb_data [31:0] $end
$var wire 5 , rs2 [4:0] $end
$var wire 5 - rs1 [4:0] $end
$var wire 1 . regwrite $end
$var wire 32 / rdata2 [31:0] $end
$var wire 32 0 rdata1 [31:0] $end
$var wire 5 1 rd [4:0] $end
$var wire 7 2 opcode [6:0] $end
$var wire 32 3 next_pc [31:0] $end
$var wire 1 4 memwrite $end
$var wire 1 5 memtoreg $end
$var wire 1 6 memread $end
$var wire 32 7 mem_data_out [31:0] $end
$var wire 1 8 jump $end
$var wire 7 9 funct7 [6:0] $end
$var wire 3 : funct3 [2:0] $end
$var wire 2 ; forwardB [1:0] $end
$var wire 2 < forwardA [1:0] $end
$var wire 32 = branch_target [31:0] $end
$var wire 1 > branch $end
$var wire 1 ? alusrc $end
$var wire 4 @ aluop [3:0] $end
$var wire 32 A alu_result [31:0] $end
$var reg 32 B IF_ID_instr [31:0] $end
$var reg 32 C IF_ID_pc [31:0] $end
$var reg 32 D alu_srcA [31:0] $end
$var reg 32 E alu_srcB [31:0] $end
$var reg 32 F exmem_alu_result [31:0] $end
$var reg 1 G exmem_branch $end
$var reg 1 H exmem_jump $end
$var reg 1 I exmem_memread $end
$var reg 1 J exmem_memtoreg $end
$var reg 1 K exmem_memwrite $end
$var reg 32 L exmem_pc_branch [31:0] $end
$var reg 5 M exmem_rd [4:0] $end
$var reg 32 N exmem_rdata2 [31:0] $end
$var reg 1 O exmem_regwrite $end
$var reg 1 P exmem_zero $end
$var reg 4 Q idex_aluop [3:0] $end
$var reg 1 R idex_alusrc $end
$var reg 1 S idex_branch $end
$var reg 32 T idex_imm [31:0] $end
$var reg 1 U idex_jump $end
$var reg 1 V idex_memread $end
$var reg 1 W idex_memtoreg $end
$var reg 1 X idex_memwrite $end
$var reg 32 Y idex_pc [31:0] $end
$var reg 5 Z idex_rd [4:0] $end
$var reg 32 [ idex_rdata1 [31:0] $end
$var reg 32 \ idex_rdata2 [31:0] $end
$var reg 1 ] idex_regwrite $end
$var reg 5 ^ idex_rs1 [4:0] $end
$var reg 5 _ idex_rs2 [4:0] $end
$var reg 32 ` imm [31:0] $end
$var reg 32 a memwb_alu_result [31:0] $end
$var reg 32 b memwb_mem_data [31:0] $end
$var reg 1 c memwb_memtoreg $end
$var reg 5 d memwb_rd [4:0] $end
$var reg 1 e memwb_regwrite $end
$var reg 32 f pc [31:0] $end
$scope module ALU $end
$var wire 32 g a [31:0] $end
$var wire 4 h aluop [3:0] $end
$var wire 32 i b [31:0] $end
$var wire 1 * zero $end
$var reg 32 j result [31:0] $end
$upscope $end
$scope module CONTROL $end
$var wire 3 k funct3 [2:0] $end
$var wire 7 l funct7 [6:0] $end
$var wire 7 m opcode [6:0] $end
$var reg 4 n aluop [3:0] $end
$var reg 1 ? alusrc $end
$var reg 1 > branch $end
$var reg 1 8 jump $end
$var reg 1 6 memread $end
$var reg 1 5 memtoreg $end
$var reg 1 4 memwrite $end
$var reg 1 . regwrite $end
$upscope $end
$scope module FORWARD $end
$var wire 5 o ex_mem_rd [4:0] $end
$var wire 1 O ex_mem_regwrite $end
$var wire 5 p id_ex_rs1 [4:0] $end
$var wire 5 q id_ex_rs2 [4:0] $end
$var wire 5 r mem_wb_rd [4:0] $end
$var wire 1 e mem_wb_regwrite $end
$var reg 2 s forwardA [1:0] $end
$var reg 2 t forwardB [1:0] $end
$upscope $end
$scope module REGS $end
$var wire 1 $ clk $end
$var wire 5 u rd [4:0] $end
$var wire 5 v rs1 [4:0] $end
$var wire 5 w rs2 [4:0] $end
$var wire 32 x wdata [31:0] $end
$var wire 1 e we $end
$var wire 32 y rdata2 [31:0] $end
$var wire 32 z rdata1 [31:0] $end
$var integer 32 { i [31:0] $end
$upscope $end
$upscope $end
$upscope $end
$enddefinitions $end
$comment Show the parameter values. $end
$dumpall
$end
#0
$dumpvars
b100000 {
b0 z
b0 y
b0 x
b0 w
b0 v
b0 u
b0 t
b0 s
b0 r
b0 q
b0 p
b0 o
b0 n
b10011 m
b0 l
b0 k
b0 j
b0 i
b0 h
b0 g
b0 f
0e
b0 d
0c
b0 b
b0 a
b0 `
b0 _
b0 ^
0]
b0 \
b0 [
b0 Z
b0 Y
0X
0W
0V
0U
b0 T
0S
0R
b0 Q
0P
0O
b0 N
b0 M
b0 L
0K
0J
0I
0H
0G
b0 F
b0 E
b0 D
b0 C
b10011 B
b0 A
b0 @
1?
0>
b0 =
b0 <
b0 ;
b0 :
b0 9
08
bx 7
06
05
04
b100 3
b10011 2
b0 1
b0 0
b0 /
1.
b0 -
b0 ,
b0 +
1*
b0 )
bx (
bx '
b0 &
1%
0$
b0 #
bx "
b0 !
$end
#5000
1$
#10000
0$
b10100000000000010010011 '
#15000
1$
#20000
0$
0%
#25000
b11100000000000100010011 '
b1000 3
b101 `
b1 1
b101 ,
b101 w
b100 !
b100 )
b100 f
bx b
1P
1R
1]
b10100000000000010010011 B
1$
#30000
0$
#35000
0*
b101 #
b101 &
b101 A
b101 j
b111 `
b10 1
b111 ,
b111 w
b101 E
b101 i
b1000001000000110110011 '
b1100 3
b11100000000000100010011 B
b100 C
b1 Z
b101 _
b101 q
b101 =
b101 T
1O
b1000 !
b1000 )
b1000 f
1$
#40000
0$
#45000
b111 #
b111 &
b111 A
b111 j
0?
1.
b1100000010000000100011 '
b10000 3
b111 E
b111 i
b0 `
b110011 2
b110011 m
b11 1
b1 -
b1 v
b10 ,
b10 w
b1100 !
b1100 )
b1100 f
1e
0P
b1 M
b1 o
b101 L
b101 F
b10 Z
b111 _
b111 q
b111 T
b1011 =
b100 Y
b1000001000000110110011 B
b1000 C
1$
#50000
0$
#55000
b0 0
b0 z
1?
14
0.
b1100 #
b1100 &
b1100 A
b1100 j
b100011 2
b100011 m
b0 1
b10 :
b10 k
b0 -
b0 v
b11 ,
b11 w
b101 D
b101 g
b1 <
b1 s
b10 ;
b10 t
b101 +
b101 x
b1000000010111 '
b10100 3
b1100000010000000100011 B
b1100 C
0R
b11 Z
b10 _
b10 q
b1 ^
b1 p
b0 T
b1000 =
b1000 Y
b10 M
b10 o
b1011 L
b111 F
b1 d
b1 r
b1 u
b101 a
b10000 !
b10000 )
b10000 f
1$
#60000
0$
#65000
1.
1?
04
b1101111 '
b11000 3
b111 +
b111 x
b1100 E
b1100 i
b0 D
b0 g
b10 ;
b10 t
b0 <
b0 s
b1000000000000 `
b10111 2
b10111 m
b1 :
b1 k
b0 ,
b0 w
b10100 !
b10100 )
b10100 f
b10 d
b10 r
b10 u
b111 a
b11 M
b11 o
b1000 L
b1100 F
1R
0]
1X
b0 Z
b11 _
b11 q
b0 ^
b0 p
b1100 =
b1100 Y
b1000000010111 B
b10000 C
1$
#70000
0$
#75000
18
1?
1.
b1000000000000 #
b1000000000000 &
b1000000000000 A
b1000000000000 j
b0 `
b1101111 2
b1101111 m
b0 :
b0 k
b1000000000000 E
b1000000000000 i
b0 ;
b0 t
b1100 +
b1100 x
bx '
b11100 3
b1101111 B
b10100 C
1]
0X
b0 _
b0 q
b1000000000000 T
b1000000010000 =
b10000 Y
0O
1K
b0 M
b0 o
b1100 L
b11 d
b11 r
b11 u
b1100 a
b11000 !
b11000 )
b11000 f
1$
#80000
0$
#85000
bx 0
bx z
bx /
bx y
1*
b0 #
b0 &
b0 A
b0 j
08
0?
0.
b100000 3
b0 E
b0 i
bx 2
bx m
bx 1
bx :
bx k
bx -
bx v
bx ,
bx w
bx 9
bx l
b11100 !
b11100 )
b11100 f
0e
b0 d
b0 r
b0 u
1O
0K
b1000000010000 L
b1000000000000 F
1U
b0 T
b10100 =
b10100 Y
bx B
b11000 C
1$
#90000
0$
#95000
x*
bx #
bx &
bx A
bx j
bx E
bx i
bx D
bx g
b1000000000000 +
b1000000000000 x
b100100 3
b11100 C
0U
0R
0]
bx Z
bx _
bx q
bx ^
bx p
bx \
bx [
b11000 =
b11000 Y
1H
1P
b10100 L
b0 F
1e
b1000000000000 a
b100000 !
b100000 )
b100000 f
1$
#100000
0$
#105000
b101000 3
b0 +
b0 x
b100100 !
b100100 )
b100100 f
b0 a
0H
0O
xP
bx M
bx o
b11000 L
bx N
bx F
b11100 =
b11100 Y
b100000 C
1$
#110000
0$
#115000
bx +
bx x
b101100 3
b100100 C
b100000 =
b100000 Y
b11100 L
0e
bx d
bx r
bx u
bx a
b101000 !
b101000 )
b101000 f
1$
#120000
0$
#125000
b110000 3
b101100 !
b101100 )
b101100 f
b100000 L
b100100 =
b100100 Y
b101000 C
1$
#130000
0$
#135000
b110100 3
b101100 C
b101000 =
b101000 Y
b100100 L
b110000 !
b110000 )
b110000 f
1$
#140000
0$
#145000
b111000 3
b110100 !
b110100 )
b110100 f
b101000 L
b101100 =
b101100 Y
b110000 C
1$
#150000
0$
#155000
b111100 3
b110100 C
b110000 =
b110000 Y
b101100 L
b111000 !
b111000 )
b111000 f
1$
#160000
0$
#165000
b1000000 3
b111100 !
b111100 )
b111100 f
b110000 L
b110100 =
b110100 Y
b111000 C
1$
#170000
0$
#175000
b1000100 3
b111100 C
b111000 =
b111000 Y
b110100 L
b1000000 !
b1000000 )
b1000000 f
1$
#180000
0$
#185000
b1001000 3
b1000100 !
b1000100 )
b1000100 f
b111000 L
b111100 =
b111100 Y
b1000000 C
1$
#190000
0$
#195000
b1001100 3
b1000100 C
b1000000 =
b1000000 Y
b111100 L
b1001000 !
b1001000 )
b1001000 f
1$
#200000
0$
#205000
b1010000 3
b1001100 !
b1001100 )
b1001100 f
b1000000 L
b1000100 =
b1000100 Y
b1001000 C
1$
#210000
0$
#215000
b1010100 3
b1001100 C
b1001000 =
b1001000 Y
b1000100 L
b1010000 !
b1010000 )
b1010000 f
1$
#220000
0$
#225000
b1011000 3
b1010100 !
b1010100 )
b1010100 f
b1001000 L
b1001100 =
b1001100 Y
b1010000 C
1$
#230000
0$
#235000
b1011100 3
b1010100 C
b1010000 =
b1010000 Y
b1001100 L
b1011000 !
b1011000 )
b1011000 f
1$
#240000
0$
#245000
b1100000 3
b1011100 !
b1011100 )
b1011100 f
b1010000 L
b1010100 =
b1010100 Y
b1011000 C
1$
#250000
0$
#255000
b1100100 3
b1011100 C
b1011000 =
b1011000 Y
b1010100 L
b1100000 !
b1100000 )
b1100000 f
1$
#260000
0$
#265000
b1101000 3
b1100100 !
b1100100 )
b1100100 f
b1011000 L
b1011100 =
b1011100 Y
b1100000 C
1$
#270000
0$
#275000
b1101100 3
b1100100 C
b1100000 =
b1100000 Y
b1011100 L
b1101000 !
b1101000 )
b1101000 f
1$
#280000
0$
#285000
b1110000 3
b1101100 !
b1101100 )
b1101100 f
b1100000 L
b1100100 =
b1100100 Y
b1101000 C
1$
#290000
0$
#295000
b1110100 3
b1101100 C
b1101000 =
b1101000 Y
b1100100 L
b1110000 !
b1110000 )
b1110000 f
1$
#300000
0$
#305000
b1111000 3
b1110100 !
b1110100 )
b1110100 f
b1101000 L
b1101100 =
b1101100 Y
b1110000 C
1$
#310000
0$
#315000
b1111100 3
b1110100 C
b1110000 =
b1110000 Y
b1101100 L
b1111000 !
b1111000 )
b1111000 f
1$
#320000
0$
#325000
b10000000 3
b1111100 !
b1111100 )
b1111100 f
b1110000 L
b1110100 =
b1110100 Y
b1111000 C
1$
#330000
0$
#335000
b10000100 3
b1111100 C
b1111000 =
b1111000 Y
b1110100 L
b10000000 !
b10000000 )
b10000000 f
1$
#340000
0$
#345000
b10001000 3
b10000100 !
b10000100 )
b10000100 f
b1111000 L
b1111100 =
b1111100 Y
b10000000 C
1$
#350000
0$
#355000
b10001100 3
b10000100 C
b10000000 =
b10000000 Y
b1111100 L
b10001000 !
b10001000 )
b10001000 f
1$
#360000
0$
#365000
b10010000 3
b10001100 !
b10001100 )
b10001100 f
b10000000 L
b10000100 =
b10000100 Y
b10001000 C
1$
#370000
0$
#375000
b10010100 3
b10001100 C
b10001000 =
b10001000 Y
b10000100 L
b10010000 !
b10010000 )
b10010000 f
1$
#380000
0$
#385000
b10011000 3
b10010100 !
b10010100 )
b10010100 f
b10001000 L
b10001100 =
b10001100 Y
b10010000 C
1$
#390000
0$
#395000
b10011100 3
b10010100 C
b10010000 =
b10010000 Y
b10001100 L
b10011000 !
b10011000 )
b10011000 f
1$
#400000
0$
#405000
b10100000 3
b10011100 !
b10011100 )
b10011100 f
b10010000 L
b10010100 =
b10010100 Y
b10011000 C
1$
#410000
0$
#415000
b10100100 3
b10011100 C
b10011000 =
b10011000 Y
b10010100 L
b10100000 !
b10100000 )
b10100000 f
1$
#420000
0$
#425000
b10101000 3
b10100100 !
b10100100 )
b10100100 f
b10011000 L
b10011100 =
b10011100 Y
b10100000 C
1$
#430000
0$
#435000
b10101100 3
b10100100 C
b10100000 =
b10100000 Y
b10011100 L
b10101000 !
b10101000 )
b10101000 f
1$
#440000
0$
#445000
b10110000 3
b10101100 !
b10101100 )
b10101100 f
b10100000 L
b10100100 =
b10100100 Y
b10101000 C
1$
#450000
0$
#455000
b10110100 3
b10101100 C
b10101000 =
b10101000 Y
b10100100 L
b10110000 !
b10110000 )
b10110000 f
1$
#460000
0$
#465000
b10111000 3
b10110100 !
b10110100 )
b10110100 f
b10101000 L
b10101100 =
b10101100 Y
b10110000 C
1$
#470000
0$
#475000
b10111100 3
b10110100 C
b10110000 =
b10110000 Y
b10101100 L
b10111000 !
b10111000 )
b10111000 f
1$
#480000
0$
#485000
b11000000 3
b10111100 !
b10111100 )
b10111100 f
b10110000 L
b10110100 =
b10110100 Y
b10111000 C
1$
#490000
0$
#495000
b11000100 3
b10111100 C
b10111000 =
b10111000 Y
b10110100 L
b11000000 !
b11000000 )
b11000000 f
1$
#500000
0$
#505000
b11001000 3
b11000100 !
b11000100 )
b11000100 f
b10111000 L
b10111100 =
b10111100 Y
b11000000 C
1$
#510000
0$
#515000
b11001100 3
b11000100 C
b11000000 =
b11000000 Y
b10111100 L
b11001000 !
b11001000 )
b11001000 f
1$
#520000
0$
#525000
b11010000 3
b11001100 !
b11001100 )
b11001100 f
b11000000 L
b11000100 =
b11000100 Y
b11001000 C
1$
#530000
0$
#535000
b11010100 3
b11001100 C
b11001000 =
b11001000 Y
b11000100 L
b11010000 !
b11010000 )
b11010000 f
1$
#540000
0$
#545000
b11011000 3
b11010100 !
b11010100 )
b11010100 f
b11001000 L
b11001100 =
b11001100 Y
b11010000 C
1$
#550000
0$
#555000
b11011100 3
b11010100 C
b11010000 =
b11010000 Y
b11001100 L
b11011000 !
b11011000 )
b11011000 f
1$
#560000
0$
#565000
b11100000 3
b11011100 !
b11011100 )
b11011100 f
b11010000 L
b11010100 =
b11010100 Y
b11011000 C
1$
#570000
0$
#575000
b11100100 3
b11011100 C
b11011000 =
b11011000 Y
b11010100 L
b11100000 !
b11100000 )
b11100000 f
1$
#580000
0$
#585000
b11101000 3
b11100100 !
b11100100 )
b11100100 f
b11011000 L
b11011100 =
b11011100 Y
b11100000 C
1$
#590000
0$
#595000
b11101100 3
b11100100 C
b11100000 =
b11100000 Y
b11011100 L
b11101000 !
b11101000 )
b11101000 f
1$
#600000
0$
#605000
b11110000 3
b11101100 !
b11101100 )
b11101100 f
b11100000 L
b11100100 =
b11100100 Y
b11101000 C
1$
#610000
0$
#615000
b11110100 3
b11101100 C
b11101000 =
b11101000 Y
b11100100 L
b11110000 !
b11110000 )
b11110000 f
1$
#620000
0$
#625000
b11111000 3
b11110100 !
b11110100 )
b11110100 f
b11101000 L
b11101100 =
b11101100 Y
b11110000 C
1$
#630000
0$
#635000
b11111100 3
b11110100 C
b11110000 =
b11110000 Y
b11101100 L
b11111000 !
b11111000 )
b11111000 f
1$
#640000
0$
#645000
b100000000 3
b11111100 !
b11111100 )
b11111100 f
b11110000 L
b11110100 =
b11110100 Y
b11111000 C
1$
#650000
0$
#655000
b100000100 3
b11111100 C
b11111000 =
b11111000 Y
b11110100 L
b100000000 !
b100000000 )
b100000000 f
1$
#660000
0$
#665000
b100001000 3
b100000100 !
b100000100 )
b100000100 f
b11111000 L
b11111100 =
b11111100 Y
b100000000 C
1$
#670000
0$
#675000
b100001100 3
b100000100 C
b100000000 =
b100000000 Y
b11111100 L
b100001000 !
b100001000 )
b100001000 f
1$
#680000
0$
#685000
b100010000 3
b100001100 !
b100001100 )
b100001100 f
b100000000 L
b100000100 =
b100000100 Y
b100001000 C
1$
#690000
0$
#695000
b100010100 3
b100001100 C
b100001000 =
b100001000 Y
b100000100 L
b100010000 !
b100010000 )
b100010000 f
1$
#700000
0$
#705000
b100011000 3
b100010100 !
b100010100 )
b100010100 f
b100001000 L
b100001100 =
b100001100 Y
b100010000 C
1$
#710000
0$
#715000
b100011100 3
b100010100 C
b100010000 =
b100010000 Y
b100001100 L
b100011000 !
b100011000 )
b100011000 f
1$
#720000
0$
#725000
b100100000 3
b100011100 !
b100011100 )
b100011100 f
b100010000 L
b100010100 =
b100010100 Y
b100011000 C
1$
#730000
0$
#735000
b100100100 3
b100011100 C
b100011000 =
b100011000 Y
b100010100 L
b100100000 !
b100100000 )
b100100000 f
1$
#740000
0$
#745000
b100101000 3
b100100100 !
b100100100 )
b100100100 f
b100011000 L
b100011100 =
b100011100 Y
b100100000 C
1$
#750000
0$
#755000
b100101100 3
b100100100 C
b100100000 =
b100100000 Y
b100011100 L
b100101000 !
b100101000 )
b100101000 f
1$
#760000
0$
#765000
b100110000 3
b100101100 !
b100101100 )
b100101100 f
b100100000 L
b100100100 =
b100100100 Y
b100101000 C
1$
#770000
0$
#775000
b100110100 3
b100101100 C
b100101000 =
b100101000 Y
b100100100 L
b100110000 !
b100110000 )
b100110000 f
1$
#780000
0$
#785000
b100111000 3
b100110100 !
b100110100 )
b100110100 f
b100101000 L
b100101100 =
b100101100 Y
b100110000 C
1$
#790000
0$
#795000
b100111100 3
b100110100 C
b100110000 =
b100110000 Y
b100101100 L
b100111000 !
b100111000 )
b100111000 f
1$
#800000
0$
#805000
b101000000 3
b100111100 !
b100111100 )
b100111100 f
b100110000 L
b100110100 =
b100110100 Y
b100111000 C
1$
#810000
0$
#815000
b101000100 3
b100111100 C
b100111000 =
b100111000 Y
b100110100 L
b101000000 !
b101000000 )
b101000000 f
1$
#820000
0$
#825000
b101001000 3
b101000100 !
b101000100 )
b101000100 f
b100111000 L
b100111100 =
b100111100 Y
b101000000 C
1$
#830000
0$
#835000
b101001100 3
b101000100 C
b101000000 =
b101000000 Y
b100111100 L
b101001000 !
b101001000 )
b101001000 f
1$
#840000
0$
#845000
b101010000 3
b101001100 !
b101001100 )
b101001100 f
b101000000 L
b101000100 =
b101000100 Y
b101001000 C
1$
#850000
0$
#855000
b101010100 3
b101001100 C
b101001000 =
b101001000 Y
b101000100 L
b101010000 !
b101010000 )
b101010000 f
1$
#860000
0$
#865000
b101011000 3
b101010100 !
b101010100 )
b101010100 f
b101001000 L
b101001100 =
b101001100 Y
b101010000 C
1$
#870000
0$
#875000
b101011100 3
b101010100 C
b101010000 =
b101010000 Y
b101001100 L
b101011000 !
b101011000 )
b101011000 f
1$
#880000
0$
#885000
b101100000 3
b101011100 !
b101011100 )
b101011100 f
b101010000 L
b101010100 =
b101010100 Y
b101011000 C
1$
#890000
0$
#895000
b101100100 3
b101011100 C
b101011000 =
b101011000 Y
b101010100 L
b101100000 !
b101100000 )
b101100000 f
1$
#900000
0$
#905000
b101101000 3
b101100100 !
b101100100 )
b101100100 f
b101011000 L
b101011100 =
b101011100 Y
b101100000 C
1$
#910000
0$
#915000
b101101100 3
b101100100 C
b101100000 =
b101100000 Y
b101011100 L
b101101000 !
b101101000 )
b101101000 f
1$
#920000
0$
#925000
b101110000 3
b101101100 !
b101101100 )
b101101100 f
b101100000 L
b101100100 =
b101100100 Y
b101101000 C
1$
#930000
0$
#935000
b101110100 3
b101101100 C
b101101000 =
b101101000 Y
b101100100 L
b101110000 !
b101110000 )
b101110000 f
1$
#940000
0$
#945000
b101111000 3
b101110100 !
b101110100 )
b101110100 f
b101101000 L
b101101100 =
b101101100 Y
b101110000 C
1$
#950000
0$
#955000
b101111100 3
b101110100 C
b101110000 =
b101110000 Y
b101101100 L
b101111000 !
b101111000 )
b101111000 f
1$
#960000
0$
#965000
b110000000 3
b101111100 !
b101111100 )
b101111100 f
b101110000 L
b101110100 =
b101110100 Y
b101111000 C
1$
#970000
0$
#975000
b110000100 3
b101111100 C
b101111000 =
b101111000 Y
b101110100 L
b110000000 !
b110000000 )
b110000000 f
1$
#980000
0$
#985000
b110001000 3
b110000100 !
b110000100 )
b110000100 f
b101111000 L
b101111100 =
b101111100 Y
b110000000 C
1$
#990000
0$
#995000
b110001100 3
b110000100 C
b110000000 =
b110000000 Y
b101111100 L
b110001000 !
b110001000 )
b110001000 f
1$
#1000000
0$
#1005000
b110010000 3
b110001100 !
b110001100 )
b110001100 f
b110000000 L
b110000100 =
b110000100 Y
b110001000 C
1$
#1010000
0$
#1015000
b110010100 3
b110001100 C
b110001000 =
b110001000 Y
b110000100 L
b110010000 !
b110010000 )
b110010000 f
1$
